<?xml version="1.0" encoding="UTF-8" standalone="no"?>
<!-- Created with Inkscape (http://www.inkscape.org/) -->

<svg
   xmlns:dc="http://purl.org/dc/elements/1.1/"
   xmlns:cc="http://creativecommons.org/ns#"
   xmlns:rdf="http://www.w3.org/1999/02/22-rdf-syntax-ns#"
   xmlns:svg="http://www.w3.org/2000/svg"
   xmlns="http://www.w3.org/2000/svg"
   xmlns:xlink="http://www.w3.org/1999/xlink"
   xmlns:sodipodi="http://sodipodi.sourceforge.net/DTD/sodipodi-0.dtd"
   xmlns:inkscape="http://www.inkscape.org/namespaces/inkscape"
   width="480"
   height="320"
   viewBox="0 0 480 320.00001"
   id="svg2"
   version="1.1"
   inkscape:version="0.91 r13725"
   inkscape:export-filename="/home/supreme/Área de Trabalho/SLSK/img/btn_click.png"
   inkscape:export-xdpi="90"
   inkscape:export-ydpi="90"
   sodipodi:docname="buttons_vector.svg">
  <defs
     id="defs4">
    <linearGradient
       id="linearGradient5181"
       inkscape:collect="always">
      <stop
         id="stop5183"
         offset="0"
         style="stop-color:#ffffff;stop-opacity:0.39215687" />
      <stop
         id="stop5185"
         offset="1"
         style="stop-color:#e5ffff;stop-opacity:0;" />
    </linearGradient>
    <linearGradient
       id="linearGradient5175"
       inkscape:collect="always">
      <stop
         id="stop5177"
         offset="0"
         style="stop-color:#ffffff;stop-opacity:0.39215687" />
      <stop
         id="stop5179"
         offset="1"
         style="stop-color:#e5ffff;stop-opacity:0;" />
    </linearGradient>
    <linearGradient
       id="linearGradient5169"
       inkscape:collect="always">
      <stop
         id="stop5171"
         offset="0"
         style="stop-color:#ffffff;stop-opacity:0.39215687" />
      <stop
         id="stop5173"
         offset="1"
         style="stop-color:#e5ffff;stop-opacity:0;" />
    </linearGradient>
    <linearGradient
       id="linearGradient5163"
       inkscape:collect="always">
      <stop
         id="stop5165"
         offset="0"
         style="stop-color:#ffffff;stop-opacity:0.39215687" />
      <stop
         id="stop5167"
         offset="1"
         style="stop-color:#e5ffff;stop-opacity:0;" />
    </linearGradient>
    <linearGradient
       id="linearGradient5157"
       inkscape:collect="always">
      <stop
         id="stop5159"
         offset="0"
         style="stop-color:#ffffff;stop-opacity:0.39215687" />
      <stop
         id="stop5161"
         offset="1"
         style="stop-color:#e5ffff;stop-opacity:0;" />
    </linearGradient>
    <linearGradient
       inkscape:collect="always"
       id="linearGradient5054">
      <stop
         style="stop-color:#ffffff;stop-opacity:0.19607843"
         offset="0"
         id="stop5056" />
      <stop
         style="stop-color:#e5ffff;stop-opacity:0;"
         offset="1"
         id="stop5058" />
    </linearGradient>
    <linearGradient
       inkscape:collect="always"
       id="linearGradient5048">
      <stop
         style="stop-color:#ffffff;stop-opacity:0.19607843"
         offset="0"
         id="stop5050" />
      <stop
         style="stop-color:#e5ffff;stop-opacity:0;"
         offset="1"
         id="stop5052" />
    </linearGradient>
    <linearGradient
       inkscape:collect="always"
       id="linearGradient5042">
      <stop
         style="stop-color:#ffffff;stop-opacity:0.19607843"
         offset="0"
         id="stop5044" />
      <stop
         style="stop-color:#e5ffff;stop-opacity:0;"
         offset="1"
         id="stop5046" />
    </linearGradient>
    <linearGradient
       inkscape:collect="always"
       id="linearGradient5036">
      <stop
         style="stop-color:#ffffff;stop-opacity:0.19607843"
         offset="0"
         id="stop5038" />
      <stop
         style="stop-color:#e5ffff;stop-opacity:0;"
         offset="1"
         id="stop5040" />
    </linearGradient>
    <linearGradient
       inkscape:collect="always"
       id="linearGradient5030">
      <stop
         style="stop-color:#ffffff;stop-opacity:0.19607843"
         offset="0"
         id="stop5032" />
      <stop
         style="stop-color:#e5ffff;stop-opacity:0;"
         offset="1"
         id="stop5034" />
    </linearGradient>
    <linearGradient
       inkscape:collect="always"
       id="linearGradient4826">
      <stop
         style="stop-color:#6464ff;stop-opacity:0.09803922"
         offset="0"
         id="stop4828" />
      <stop
         style="stop-color:#e5ffff;stop-opacity:0;"
         offset="1"
         id="stop4830" />
    </linearGradient>
    <linearGradient
       inkscape:collect="always"
       id="linearGradient4820">
      <stop
         style="stop-color:#646464;stop-opacity:0.09803922"
         offset="0"
         id="stop4822" />
      <stop
         style="stop-color:#e5ffff;stop-opacity:0;"
         offset="1"
         id="stop4824" />
    </linearGradient>
    <linearGradient
       inkscape:collect="always"
       id="linearGradient4814">
      <stop
         style="stop-color:#646464;stop-opacity:0.09803922"
         offset="0"
         id="stop4816" />
      <stop
         style="stop-color:#e5ffff;stop-opacity:0;"
         offset="1"
         id="stop4818" />
    </linearGradient>
    <linearGradient
       inkscape:collect="always"
       id="linearGradient4808">
      <stop
         style="stop-color:#646464;stop-opacity:0.09803922"
         offset="0"
         id="stop4810" />
      <stop
         style="stop-color:#e5ffff;stop-opacity:0;"
         offset="1"
         id="stop4812" />
    </linearGradient>
    <linearGradient
       inkscape:collect="always"
       id="linearGradient4802">
      <stop
         style="stop-color:#646464;stop-opacity:0.09803922"
         offset="0"
         id="stop4804" />
      <stop
         style="stop-color:#e5ffff;stop-opacity:0;"
         offset="1"
         id="stop4806" />
    </linearGradient>
    <linearGradient
       id="linearGradient4532"
       inkscape:collect="always">
      <stop
         id="stop4534"
         offset="0"
         style="stop-color:#e5ffff;stop-opacity:0.09803922" />
      <stop
         id="stop4536"
         offset="1"
         style="stop-color:#e5ffff;stop-opacity:0;" />
    </linearGradient>
    <linearGradient
       id="linearGradient4926"
       inkscape:collect="always">
      <stop
         id="stop4928"
         offset="0"
         style="stop-color:#002850;stop-opacity:1" />
      <stop
         id="stop4930"
         offset="1"
         style="stop-color:#005078;stop-opacity:1" />
    </linearGradient>
    <linearGradient
       inkscape:collect="always"
       id="linearGradient4896">
      <stop
         style="stop-color:#32b4dc;stop-opacity:1"
         offset="0"
         id="stop4898" />
      <stop
         style="stop-color:#32e6fa;stop-opacity:1"
         offset="1"
         id="stop4900" />
    </linearGradient>
    <linearGradient
       id="linearGradient4866"
       inkscape:collect="always">
      <stop
         id="stop4868"
         offset="0"
         style="stop-color:#3296c8;stop-opacity:1" />
      <stop
         id="stop4870"
         offset="1"
         style="stop-color:#32c8fa;stop-opacity:1" />
    </linearGradient>
    <linearGradient
       inkscape:collect="always"
       id="linearGradient4769">
      <stop
         style="stop-color:#1e78a0;stop-opacity:1;"
         offset="0"
         id="stop4771" />
      <stop
         style="stop-color:#1ea0fa;stop-opacity:1"
         offset="1"
         id="stop4773" />
    </linearGradient>
    <linearGradient
       inkscape:collect="always"
       xlink:href="#linearGradient4769"
       id="linearGradient4775"
       x1="249.28572"
       y1="989.505"
       x2="249.28572"
       y2="780.93359"
       gradientUnits="userSpaceOnUse"
       gradientTransform="matrix(1.5537674,0,0,1.5475109,-142.89271,-478.07711)" />
    <linearGradient
       inkscape:collect="always"
       xlink:href="#linearGradient4866"
       id="linearGradient4775-3"
       x1="249.28572"
       y1="989.505"
       x2="249.28572"
       y2="780.93359"
       gradientUnits="userSpaceOnUse"
       gradientTransform="matrix(1.5367309,0,0,1.5220592,-138.69445,-455.53755)" />
    <linearGradient
       inkscape:collect="always"
       xlink:href="#linearGradient4896"
       id="linearGradient4775-3-3"
       x1="249.28572"
       y1="989.505"
       x2="249.28572"
       y2="780.93359"
       gradientUnits="userSpaceOnUse"
       gradientTransform="matrix(1.5367309,0,0,1.5220592,-138.69441,-455.53779)" />
    <linearGradient
       inkscape:collect="always"
       xlink:href="#linearGradient4926"
       id="linearGradient4775-9"
       x1="249.28572"
       y1="989.505"
       x2="249.28572"
       y2="780.93359"
       gradientUnits="userSpaceOnUse"
       gradientTransform="matrix(1.5537674,0,0,1.547511,-142.89269,-478.07735)" />
    <radialGradient
       inkscape:collect="always"
       xlink:href="#linearGradient4532"
       id="radialGradient4167-0-9"
       cx="-598.8559"
       cy="1256.1952"
       fx="-598.8559"
       fy="1256.1952"
       r="14.542445"
       gradientTransform="matrix(1.8868074,13.656683,-2.4705293,10.637185,3588.0776,-3926.1968)"
       gradientUnits="userSpaceOnUse" />
    <radialGradient
       inkscape:collect="always"
       xlink:href="#linearGradient4532"
       id="radialGradient4167-0-9-3"
       cx="-598.8559"
       cy="1256.1952"
       fx="-598.8559"
       fy="1256.1952"
       r="14.542445"
       gradientTransform="matrix(1.2452927,9.0134098,-1.6305491,7.0205413,2331.7966,-2243.9255)"
       gradientUnits="userSpaceOnUse" />
    <radialGradient
       inkscape:collect="always"
       xlink:href="#linearGradient4532"
       id="radialGradient4167-0-9-3-6"
       cx="-598.8559"
       cy="1256.1952"
       fx="-598.8559"
       fy="1256.1952"
       r="14.542445"
       gradientTransform="matrix(0.72117944,5.2198859,-0.94429086,4.0657671,1246.8865,-864.71985)"
       gradientUnits="userSpaceOnUse" />
    <radialGradient
       inkscape:collect="always"
       xlink:href="#linearGradient4532"
       id="radialGradient4167-0-9-6"
       cx="-598.8559"
       cy="1256.1952"
       fx="-598.8559"
       fy="1256.1952"
       r="14.542445"
       gradientTransform="matrix(1.3459225,9.7417663,-1.7623107,7.5878579,2216.4548,-2379.7239)"
       gradientUnits="userSpaceOnUse" />
    <radialGradient
       inkscape:collect="always"
       xlink:href="#linearGradient4532"
       id="radialGradient4167-0-9-6-4"
       cx="-598.8559"
       cy="1256.1952"
       fx="-598.8559"
       fy="1256.1952"
       r="14.542445"
       gradientTransform="matrix(0.85473131,6.1865319,-1.1191597,4.8186873,1027.309,-969.95924)"
       gradientUnits="userSpaceOnUse" />
    <radialGradient
       inkscape:collect="always"
       xlink:href="#linearGradient4802"
       id="radialGradient4167-0-9-69"
       cx="-598.8559"
       cy="1256.1952"
       fx="-598.8559"
       fy="1256.1952"
       r="14.542445"
       gradientTransform="matrix(1.8844515,13.56626,-2.4674445,10.566754,3573.4616,-3885.8679)"
       gradientUnits="userSpaceOnUse" />
    <radialGradient
       inkscape:collect="always"
       xlink:href="#linearGradient4808"
       id="radialGradient4167-0-9-3-4"
       cx="-598.8559"
       cy="1256.1952"
       fx="-598.8559"
       fy="1256.1952"
       r="14.542445"
       gradientTransform="matrix(1.2437378,8.9537305,-1.6285132,6.9740571,2318.7492,-2214.7352)"
       gradientUnits="userSpaceOnUse" />
    <radialGradient
       inkscape:collect="always"
       xlink:href="#linearGradient4814"
       id="radialGradient4167-0-9-3-6-5"
       cx="-598.8559"
       cy="1256.1952"
       fx="-598.8559"
       fy="1256.1952"
       r="14.542445"
       gradientTransform="matrix(0.72027896,5.1853242,-0.9431118,4.038847,1235.1938,-844.66148)"
       gradientUnits="userSpaceOnUse" />
    <radialGradient
       inkscape:collect="always"
       xlink:href="#linearGradient4820"
       id="radialGradient4167-0-9-6-2"
       cx="-598.8559"
       cy="1256.1952"
       fx="-598.8559"
       fy="1256.1952"
       r="14.542445"
       gradientTransform="matrix(1.344242,9.6772644,-1.7601102,7.5376174,2203.5514,-2349.6344)"
       gradientUnits="userSpaceOnUse" />
    <radialGradient
       inkscape:collect="always"
       xlink:href="#linearGradient4826"
       id="radialGradient4167-0-9-6-4-5"
       cx="-598.8559"
       cy="1256.1952"
       fx="-598.8559"
       fy="1256.1952"
       r="14.542445"
       gradientTransform="matrix(0.85366408,6.1455698,-1.1177623,4.786782,1015.8904,-949.20407)"
       gradientUnits="userSpaceOnUse" />
    <radialGradient
       inkscape:collect="always"
       xlink:href="#linearGradient5042"
       id="radialGradient4167-0-9-7"
       cx="-598.8559"
       cy="1256.1952"
       fx="-598.8559"
       fy="1256.1952"
       r="14.542445"
       gradientTransform="matrix(1.8844515,13.56626,-2.4674445,10.566754,3573.4616,-3885.8679)"
       gradientUnits="userSpaceOnUse" />
    <radialGradient
       inkscape:collect="always"
       xlink:href="#linearGradient5036"
       id="radialGradient4167-0-9-3-61"
       cx="-598.8559"
       cy="1256.1952"
       fx="-598.8559"
       fy="1256.1952"
       r="14.542445"
       gradientTransform="matrix(1.2437378,8.9537305,-1.6285132,6.9740571,2318.7492,-2214.7352)"
       gradientUnits="userSpaceOnUse" />
    <radialGradient
       inkscape:collect="always"
       xlink:href="#linearGradient5030"
       id="radialGradient4167-0-9-3-6-0"
       cx="-598.8559"
       cy="1256.1952"
       fx="-598.8559"
       fy="1256.1952"
       r="14.542445"
       gradientTransform="matrix(0.72027896,5.1853242,-0.9431118,4.038847,1235.1938,-844.66148)"
       gradientUnits="userSpaceOnUse" />
    <radialGradient
       inkscape:collect="always"
       xlink:href="#linearGradient5048"
       id="radialGradient4167-0-9-6-6"
       cx="-598.8559"
       cy="1256.1952"
       fx="-598.8559"
       fy="1256.1952"
       r="14.542445"
       gradientTransform="matrix(1.344242,9.6772644,-1.7601102,7.5376174,2203.5514,-2349.6344)"
       gradientUnits="userSpaceOnUse" />
    <radialGradient
       inkscape:collect="always"
       xlink:href="#linearGradient5054"
       id="radialGradient4167-0-9-6-4-1"
       cx="-598.8559"
       cy="1256.1952"
       fx="-598.8559"
       fy="1256.1952"
       r="14.542445"
       gradientTransform="matrix(0.85366408,6.1455698,-1.1177623,4.786782,1015.8904,-949.20407)"
       gradientUnits="userSpaceOnUse" />
    <radialGradient
       inkscape:collect="always"
       xlink:href="#linearGradient5169"
       id="radialGradient4167-0-9-7-7"
       cx="-598.8559"
       cy="1256.1952"
       fx="-598.8559"
       fy="1256.1952"
       r="14.542445"
       gradientTransform="matrix(1.8844515,13.56626,-2.4674445,10.566754,3573.4617,-3885.8679)"
       gradientUnits="userSpaceOnUse" />
    <radialGradient
       inkscape:collect="always"
       xlink:href="#linearGradient5163"
       id="radialGradient4167-0-9-3-61-1"
       cx="-598.8559"
       cy="1256.1952"
       fx="-598.8559"
       fy="1256.1952"
       r="14.542445"
       gradientTransform="matrix(1.2437378,8.9537305,-1.6285132,6.9740571,2318.7493,-2214.7352)"
       gradientUnits="userSpaceOnUse" />
    <radialGradient
       inkscape:collect="always"
       xlink:href="#linearGradient5157"
       id="radialGradient4167-0-9-3-6-0-7"
       cx="-598.8559"
       cy="1256.1952"
       fx="-598.8559"
       fy="1256.1952"
       r="14.542445"
       gradientTransform="matrix(0.72027896,5.1853242,-0.9431118,4.038847,1235.1939,-844.66151)"
       gradientUnits="userSpaceOnUse" />
    <radialGradient
       inkscape:collect="always"
       xlink:href="#linearGradient5175"
       id="radialGradient4167-0-9-6-6-7"
       cx="-598.8559"
       cy="1256.1952"
       fx="-598.8559"
       fy="1256.1952"
       r="14.542445"
       gradientTransform="matrix(1.344242,9.6772644,-1.7601102,7.5376174,2203.5515,-2349.6344)"
       gradientUnits="userSpaceOnUse" />
    <radialGradient
       inkscape:collect="always"
       xlink:href="#linearGradient5181"
       id="radialGradient4167-0-9-6-4-1-5"
       cx="-598.8559"
       cy="1256.1952"
       fx="-598.8559"
       fy="1256.1952"
       r="14.542445"
       gradientTransform="matrix(0.85366408,6.1455698,-1.1177623,4.786782,1015.8905,-949.2041)"
       gradientUnits="userSpaceOnUse" />
  </defs>
  <sodipodi:namedview
     id="base"
     pagecolor="#ffffff"
     bordercolor="#666666"
     borderopacity="1.0"
     inkscape:pageopacity="0.0"
     inkscape:pageshadow="2"
     inkscape:zoom="1.4"
     inkscape:cx="206.17938"
     inkscape:cy="191.54726"
     inkscape:document-units="px"
     inkscape:current-layer="layer1"
     showgrid="false"
     units="px"
     inkscape:window-width="1920"
     inkscape:window-height="1031"
     inkscape:window-x="0"
     inkscape:window-y="0"
     inkscape:window-maximized="1" />
  <metadata
     id="metadata7">
    <rdf:RDF>
      <cc:Work
         rdf:about="">
        <dc:format>image/svg+xml</dc:format>
        <dc:type
           rdf:resource="http://purl.org/dc/dcmitype/StillImage" />
        <dc:title />
      </cc:Work>
    </rdf:RDF>
  </metadata>
  <g
     inkscape:label="Camada 1"
     inkscape:groupmode="layer"
     id="layer1"
     transform="translate(0,-732.36216)">
    <g
       id="g4787"
       transform="translate(-225.00001,-165)">
      <rect
         ry="17.685812"
         y="732.36218"
         x="0"
         height="320"
         width="480"
         id="rect4684"
         style="opacity:1;fill:url(#linearGradient4775);fill-opacity:1;stroke:none;stroke-width:0.37480012;stroke-opacity:1">
        <title
           id="title4153">btn_normal</title>
      </rect>
      <g
         transform="matrix(0.99875138,0,0,0.98809007,-2.4449535e-8,10.133933)"
         id="g4693">
        <rect
           style="opacity:1;fill:url(#radialGradient4167-0-9);fill-opacity:1;stroke:none;stroke-width:2;stroke-linecap:butt;stroke-linejoin:miter;stroke-miterlimit:4;stroke-dasharray:none;stroke-dashoffset:0;stroke-opacity:1"
           id="rect4157-6-9"
           width="29.08489"
           height="452.1915"
           x="-659.85785"
           y="1031.7074"
           ry="0"
           transform="matrix(1,0,0.70337007,0.71082384,0,0)" />
        <rect
           style="opacity:1;fill:url(#radialGradient4167-0-9-3);fill-opacity:1;stroke:none;stroke-width:2;stroke-linecap:butt;stroke-linejoin:miter;stroke-miterlimit:4;stroke-dasharray:none;stroke-dashoffset:0;stroke-opacity:1"
           id="rect4157-6-9-0"
           width="19.196026"
           height="298.44635"
           x="-471.84042"
           y="1028.2908"
           ry="0"
           transform="matrix(1,0,0.70337007,0.71082384,0,0)" />
        <rect
           style="opacity:1;fill:url(#radialGradient4167-0-9-3-6);fill-opacity:1;stroke:none;stroke-width:2;stroke-linecap:butt;stroke-linejoin:miter;stroke-miterlimit:4;stroke-dasharray:none;stroke-dashoffset:0;stroke-opacity:1"
           id="rect4157-6-9-0-0"
           width="11.116887"
           height="172.83759"
           x="-376.76825"
           y="1030.3007"
           ry="0"
           transform="matrix(1,0,0.70337007,0.71082384,0,0)" />
        <rect
           style="opacity:1;fill:url(#radialGradient4167-0-9-6);fill-opacity:1;stroke:none;stroke-width:2;stroke-linecap:butt;stroke-linejoin:miter;stroke-miterlimit:4;stroke-dasharray:none;stroke-dashoffset:0;stroke-opacity:1"
           id="rect4157-6-9-5"
           width="20.747219"
           height="322.56323"
           x="-813.73883"
           y="1156.9142"
           ry="0"
           transform="matrix(1,0,0.70337007,0.71082384,0,0)" />
        <rect
           style="opacity:1;fill:url(#radialGradient4167-0-9-6-4);fill-opacity:1;stroke:none;stroke-width:2;stroke-linecap:butt;stroke-linejoin:miter;stroke-miterlimit:4;stroke-dasharray:none;stroke-dashoffset:0;stroke-opacity:1"
           id="rect4157-6-9-5-5"
           width="13.17557"
           height="204.84456"
           x="-897.02264"
           y="1275.9913"
           ry="0"
           transform="matrix(1,0,0.70337007,0.71082384,0,0)" />
      </g>
    </g>
    <g
       id="g4839"
       transform="translate(-222.85714,143.57144)">
      <rect
         ry="17.685814"
         y="732.36218"
         x="0"
         height="320"
         width="480"
         id="rect4684-7"
         style="opacity:1;fill:url(#linearGradient4775-9);fill-opacity:1;stroke:none;stroke-width:0.37480012;stroke-opacity:1">
        <title
           id="title4155">btn_disabled</title>
      </rect>
      <rect
         transform="matrix(1,0,0.70717415,0.70703941,0,0)"
         ry="0"
         y="1039.2092"
         x="-669.1698"
         height="449.19745"
         width="29.048574"
         id="rect4157-6-9-7"
         style="opacity:1;fill:url(#radialGradient4167-0-9-69);fill-opacity:1;stroke:none;stroke-width:2;stroke-linecap:butt;stroke-linejoin:miter;stroke-miterlimit:4;stroke-dasharray:none;stroke-dashoffset:0;stroke-opacity:1" />
      <rect
         transform="matrix(1,0,0.70717415,0.70703941,0,0)"
         ry="0"
         y="1035.8152"
         x="-481.38712"
         height="296.47028"
         width="19.172058"
         id="rect4157-6-9-0-4"
         style="opacity:1;fill:url(#radialGradient4167-0-9-3-4);fill-opacity:1;stroke:none;stroke-width:2;stroke-linecap:butt;stroke-linejoin:miter;stroke-miterlimit:4;stroke-dasharray:none;stroke-dashoffset:0;stroke-opacity:1" />
      <rect
         transform="matrix(1,0,0.70717415,0.70703941,0,0)"
         ry="0"
         y="1037.8118"
         x="-386.43365"
         height="171.69319"
         width="11.103006"
         id="rect4157-6-9-0-0-4"
         style="opacity:1;fill:url(#radialGradient4167-0-9-3-6-5);fill-opacity:1;stroke:none;stroke-width:2;stroke-linecap:butt;stroke-linejoin:miter;stroke-miterlimit:4;stroke-dasharray:none;stroke-dashoffset:0;stroke-opacity:1" />
      <rect
         transform="matrix(1,0,0.70717415,0.70703941,0,0)"
         ry="0"
         y="1163.5869"
         x="-822.85864"
         height="320.42749"
         width="20.721313"
         id="rect4157-6-9-5-3"
         style="opacity:1;fill:url(#radialGradient4167-0-9-6-2);fill-opacity:1;stroke:none;stroke-width:2;stroke-linecap:butt;stroke-linejoin:miter;stroke-miterlimit:4;stroke-dasharray:none;stroke-dashoffset:0;stroke-opacity:1" />
      <rect
         transform="matrix(1,0,0.70717415,0.70703941,0,0)"
         ry="0"
         y="1281.8757"
         x="-906.03845"
         height="203.48825"
         width="13.159119"
         id="rect4157-6-9-5-5-0"
         style="opacity:1;fill:url(#radialGradient4167-0-9-6-4-5);fill-opacity:1;stroke:none;stroke-width:2;stroke-linecap:butt;stroke-linejoin:miter;stroke-miterlimit:4;stroke-dasharray:none;stroke-dashoffset:0;stroke-opacity:1" />
    </g>
    <g
       id="g5142"
       transform="translate(246.42857,-164.28572)">
      <rect
         ry="17.394936"
         y="734.99365"
         x="2.6315103"
         height="314.73697"
         width="474.73697"
         id="rect4684-5"
         style="opacity:1;fill:url(#linearGradient4775-3);fill-opacity:1;stroke:#b4dcfa;stroke-width:5.26302052;stroke-linecap:butt;stroke-linejoin:miter;stroke-miterlimit:4;stroke-dasharray:none;stroke-dashoffset:0;stroke-opacity:1">
        <title
           id="title4157">btn_hover</title>
      </rect>
      <g
         id="g5060">
        <rect
           style="opacity:1;fill:url(#radialGradient4167-0-9-7);fill-opacity:1;stroke:none;stroke-width:2;stroke-linecap:butt;stroke-linejoin:miter;stroke-miterlimit:4;stroke-dasharray:none;stroke-dashoffset:0;stroke-opacity:1"
           id="rect4157-6-9-9"
           width="29.048574"
           height="449.19745"
           x="-669.1698"
           y="1039.2092"
           ry="0"
           transform="matrix(1,0,0.70717415,0.70703941,0,0)" />
        <rect
           style="opacity:1;fill:url(#radialGradient4167-0-9-3-61);fill-opacity:1;stroke:none;stroke-width:2;stroke-linecap:butt;stroke-linejoin:miter;stroke-miterlimit:4;stroke-dasharray:none;stroke-dashoffset:0;stroke-opacity:1"
           id="rect4157-6-9-0-49"
           width="19.172058"
           height="296.47028"
           x="-481.38712"
           y="1035.8152"
           ry="0"
           transform="matrix(1,0,0.70717415,0.70703941,0,0)" />
        <rect
           style="opacity:1;fill:url(#radialGradient4167-0-9-3-6-0);fill-opacity:1;stroke:none;stroke-width:2;stroke-linecap:butt;stroke-linejoin:miter;stroke-miterlimit:4;stroke-dasharray:none;stroke-dashoffset:0;stroke-opacity:1"
           id="rect4157-6-9-0-0-0"
           width="11.103006"
           height="171.69319"
           x="-386.43365"
           y="1037.8118"
           ry="0"
           transform="matrix(1,0,0.70717415,0.70703941,0,0)" />
        <rect
           style="opacity:1;fill:url(#radialGradient4167-0-9-6-6);fill-opacity:1;stroke:none;stroke-width:2;stroke-linecap:butt;stroke-linejoin:miter;stroke-miterlimit:4;stroke-dasharray:none;stroke-dashoffset:0;stroke-opacity:1"
           id="rect4157-6-9-5-9"
           width="20.721313"
           height="320.42749"
           x="-822.85864"
           y="1163.5869"
           ry="0"
           transform="matrix(1,0,0.70717415,0.70703941,0,0)" />
        <rect
           style="opacity:1;fill:url(#radialGradient4167-0-9-6-4-1);fill-opacity:1;stroke:none;stroke-width:2;stroke-linecap:butt;stroke-linejoin:miter;stroke-miterlimit:4;stroke-dasharray:none;stroke-dashoffset:0;stroke-opacity:1"
           id="rect4157-6-9-5-5-1"
           width="13.159119"
           height="203.48825"
           x="-906.03845"
           y="1281.8757"
           ry="0"
           transform="matrix(1,0,0.70717415,0.70703941,0,0)" />
      </g>
    </g>
    <g
       id="g5194"
       transform="translate(245,145)">
      <rect
         ry="17.394936"
         y="734.99365"
         x="2.6315103"
         height="314.73697"
         width="474.73697"
         id="rect4684-5-2"
         style="opacity:1;fill:url(#linearGradient4775-3-3);fill-opacity:1;stroke:#c8ebff;stroke-width:5.26302052;stroke-linecap:butt;stroke-linejoin:miter;stroke-miterlimit:4;stroke-dasharray:none;stroke-dashoffset:0;stroke-opacity:1">
        <title
           id="title4159">btn_click</title>
      </rect>
      <g
         id="g5187">
        <rect
           style="opacity:1;fill:url(#radialGradient4167-0-9-7-7);fill-opacity:1;stroke:none;stroke-width:2;stroke-linecap:butt;stroke-linejoin:miter;stroke-miterlimit:4;stroke-dasharray:none;stroke-dashoffset:0;stroke-opacity:1"
           id="rect4157-6-9-9-4"
           width="29.048574"
           height="449.19745"
           x="-669.16974"
           y="1039.2092"
           ry="0"
           transform="matrix(1,0,0.70717415,0.70703941,0,0)" />
        <rect
           style="opacity:1;fill:url(#radialGradient4167-0-9-3-61-1);fill-opacity:1;stroke:none;stroke-width:2;stroke-linecap:butt;stroke-linejoin:miter;stroke-miterlimit:4;stroke-dasharray:none;stroke-dashoffset:0;stroke-opacity:1"
           id="rect4157-6-9-0-49-8"
           width="19.172058"
           height="296.47028"
           x="-481.38705"
           y="1035.8152"
           ry="0"
           transform="matrix(1,0,0.70717415,0.70703941,0,0)" />
        <rect
           style="opacity:1;fill:url(#radialGradient4167-0-9-3-6-0-7);fill-opacity:1;stroke:none;stroke-width:2;stroke-linecap:butt;stroke-linejoin:miter;stroke-miterlimit:4;stroke-dasharray:none;stroke-dashoffset:0;stroke-opacity:1"
           id="rect4157-6-9-0-0-0-1"
           width="11.103006"
           height="171.69319"
           x="-386.43359"
           y="1037.8118"
           ry="0"
           transform="matrix(1,0,0.70717415,0.70703941,0,0)" />
        <rect
           style="opacity:1;fill:url(#radialGradient4167-0-9-6-6-7);fill-opacity:1;stroke:none;stroke-width:2;stroke-linecap:butt;stroke-linejoin:miter;stroke-miterlimit:4;stroke-dasharray:none;stroke-dashoffset:0;stroke-opacity:1"
           id="rect4157-6-9-5-9-2"
           width="20.721313"
           height="320.42749"
           x="-822.85858"
           y="1163.5869"
           ry="0"
           transform="matrix(1,0,0.70717415,0.70703941,0,0)" />
        <rect
           style="opacity:1;fill:url(#radialGradient4167-0-9-6-4-1-5);fill-opacity:1;stroke:none;stroke-width:2;stroke-linecap:butt;stroke-linejoin:miter;stroke-miterlimit:4;stroke-dasharray:none;stroke-dashoffset:0;stroke-opacity:1"
           id="rect4157-6-9-5-5-1-9"
           width="13.159119"
           height="203.48825"
           x="-906.03839"
           y="1281.8757"
           ry="0"
           transform="matrix(1,0,0.70717415,0.70703941,0,0)" />
      </g>
    </g>
  </g>
</svg>
