<?xml version="1.0" encoding="UTF-8" standalone="no"?>
<svg
   xmlns:dc="http://purl.org/dc/elements/1.1/"
   xmlns:cc="http://creativecommons.org/ns#"
   xmlns:rdf="http://www.w3.org/1999/02/22-rdf-syntax-ns#"
   xmlns:svg="http://www.w3.org/2000/svg"
   xmlns="http://www.w3.org/2000/svg"
   xmlns:sodipodi="http://sodipodi.sourceforge.net/DTD/sodipodi-0.dtd"
   xmlns:inkscape="http://www.inkscape.org/namespaces/inkscape"
   version="1.1"
   viewBox="0 0 233 233"
   id="svg2"
   inkscape:version="0.92.2 2405546, 2018-03-11"
   sodipodi:docname="icon_vector.svg">
  <metadata
     id="metadata27">
    <rdf:RDF>
      <cc:Work
         rdf:about="">
        <dc:format>image/svg+xml</dc:format>
        <dc:type
           rdf:resource="http://purl.org/dc/dcmitype/StillImage" />
      </cc:Work>
    </rdf:RDF>
  </metadata>
  <sodipodi:namedview
     pagecolor="#ffffff"
     bordercolor="#666666"
     borderopacity="1"
     objecttolerance="10"
     gridtolerance="10"
     guidetolerance="10"
     inkscape:pageopacity="0"
     inkscape:pageshadow="2"
     inkscape:window-width="1920"
     inkscape:window-height="1015"
     id="namedview25"
     showgrid="false"
     inkscape:zoom="1"
     inkscape:cx="-140.02698"
     inkscape:cy="129.51298"
     inkscape:window-x="0"
     inkscape:window-y="0"
     inkscape:window-maximized="1"
     inkscape:current-layer="svg2"
     showguides="false" />
  <defs
     id="defs4">
    <linearGradient
       id="a"
       x2="116.68872"
       x1="116.68872"
       y2="232.87497"
       gradientTransform="matrix(0.9376197,-0.34611608,0.34648784,0.9386268,-33.127713,47.596498)"
       y1="0"
       gradientUnits="userSpaceOnUse">
      <stop
         stop-color="#111D2E"
         offset="0"
         id="stop7" />
      <stop
         stop-color="#051839"
         offset=".21248"
         id="stop9" />
      <stop
         stop-color="#0A1B48"
         offset=".40695"
         id="stop11" />
      <stop
         stop-color="#132E62"
         offset=".58110"
         id="stop13" />
      <stop
         stop-color="#144B7E"
         offset=".73760"
         id="stop15" />
      <stop
         stop-color="#136497"
         offset=".87279"
         id="stop17" />
      <stop
         stop-color="#1387B8"
         offset="1"
         id="stop19" />
    </linearGradient>
    <linearGradient
       id="a-0"
       x2="116.68872"
       x1="116.68872"
       y2="232.87497"
       gradientTransform="matrix(0.08459288,-0.0077898,0.00779817,0.08468375,174.58198,122.29689)"
       y1="0"
       gradientUnits="userSpaceOnUse">
      <stop
         stop-color="#111D2E"
         offset="0"
         id="stop7-9" />
      <stop
         stop-color="#051839"
         offset=".21248"
         id="stop9-3" />
      <stop
         stop-color="#0A1B48"
         offset=".40695"
         id="stop11-6" />
      <stop
         stop-color="#132E62"
         offset=".58110"
         id="stop13-0" />
      <stop
         stop-color="#144B7E"
         offset=".73760"
         id="stop15-6" />
      <stop
         stop-color="#136497"
         offset=".87279"
         id="stop17-2" />
      <stop
         stop-color="#1387B8"
         offset="1"
         id="stop19-6" />
    </linearGradient>
    <linearGradient
       id="a-7"
       x2="116.68872"
       x1="116.68872"
       y2="232.87497"
       gradientTransform="matrix(0.9376197,-0.34611608,0.34648784,0.9386268,-33.127713,47.596498)"
       y1="0"
       gradientUnits="userSpaceOnUse">
      <stop
         stop-color="#111D2E"
         offset="0"
         id="stop7-5" />
      <stop
         stop-color="#051839"
         offset=".21248"
         id="stop9-9" />
      <stop
         stop-color="#0A1B48"
         offset=".40695"
         id="stop11-2" />
      <stop
         stop-color="#132E62"
         offset=".58110"
         id="stop13-2" />
      <stop
         stop-color="#144B7E"
         offset=".73760"
         id="stop15-8" />
      <stop
         stop-color="#136497"
         offset=".87279"
         id="stop17-9" />
      <stop
         stop-color="#1387B8"
         offset="1"
         id="stop19-7" />
    </linearGradient>
    <linearGradient
       id="a-3"
       x2="116.68872"
       x1="116.68872"
       y2="232.87497"
       gradientTransform="matrix(0.9376197,-0.34611608,0.34648784,0.9386268,-33.127713,47.596498)"
       y1="0"
       gradientUnits="userSpaceOnUse">
      <stop
         stop-color="#111D2E"
         offset="0"
         id="stop7-6" />
      <stop
         stop-color="#051839"
         offset=".21248"
         id="stop9-1" />
      <stop
         stop-color="#0A1B48"
         offset=".40695"
         id="stop11-0" />
      <stop
         stop-color="#132E62"
         offset=".58110"
         id="stop13-6" />
      <stop
         stop-color="#144B7E"
         offset=".73760"
         id="stop15-3" />
      <stop
         stop-color="#136497"
         offset=".87279"
         id="stop17-20" />
      <stop
         stop-color="#1387B8"
         offset="1"
         id="stop19-61" />
    </linearGradient>
  </defs>
  <g
     id="g908">
    <g
       transform="matrix(2.2689083,0,0,2.2689083,-345.98751,-168.38391)"
       id="g4441">
      <path
         style="fill:#000000;fill-opacity:1;fill-rule:evenodd;stroke:#000000;stroke-width:0.99873871px;stroke-linecap:butt;stroke-linejoin:miter;stroke-opacity:1"
         d="m 172.1482,174.56954 c 0,0 10.30593,6.45807 17.83555,-6.5836 l 40.05069,-68.87682 c 7.10128,-13.44921 -3.06103,-18.83227 -3.06103,-18.83227 0,0 5.19589,8.11821 0.13931,16.87648 l -39.96355,68.72586 c -5.3532,9.20598 -15.00097,8.69035 -15.00097,8.69035 z"
         id="path4148-7-3"
         inkscape:connector-curvature="0"
         sodipodi:nodetypes="cccccsc" />
      <g
         id="g4342-6"
         transform="matrix(1.1745826,0.31472846,-0.31472846,1.1745826,82.075666,-63.886588)"
         style="fill:#000000;fill-opacity:1;stroke:#000000;stroke-opacity:1">
        <g
           transform="rotate(-2.2235581,117.8337,937.09325)"
           id="g4328-1"
           style="fill:#000000;fill-opacity:1;stroke:#000000;stroke-opacity:1">
          <path
             style="fill:#000000;fill-opacity:1;fill-rule:evenodd;stroke:#000000;stroke-width:0.45464939px;stroke-linecap:butt;stroke-linejoin:miter;stroke-opacity:1"
             d="m 188.01644,113.04971 6.87348,-8.43867 c 8.90703,7.54441 -2.78011,21.18215 -2.78011,21.18215 l -33.16688,40.71947 c -0.72489,0.79818 -1.48059,1.3977 -2.24889,1.91592 -0.80138,1.00607 -4.70019,2.08591 -5.97653,1.84539 -3.59181,-0.67686 -1.1713,-8.34905 -1.26381,-9.8651 l 2.57483,0.40866 -0.33662,-3.29325 3.20952,-0.32809 -0.33949,-3.32117 3.4328,-0.35089 -0.30239,-2.95836 3.09789,-0.31666 -0.31666,-3.09789 2.90252,-0.29668 -0.29383,-2.87464 3.20951,-0.32806 -0.34232,-3.34909 3.09789,-0.31666 -0.30811,-3.01417 3.09789,-0.31666 -0.31095,-3.04208 3.01416,-0.3081 -0.32809,-3.20952 2.98627,-0.30525 -0.30239,-2.95837 3.15371,-0.32236 -0.31097,-3.04207 2.93045,-0.29955 -0.31096,-3.04207 3.18162,-0.32523 -0.34235,-3.34907 3.1338,-0.32034 z"
             id="path3365-2-2"
             inkscape:connector-curvature="0"
             sodipodi:nodetypes="cccccsccccccccccccccccccccccccccccc" />
          <path
             style="fill:#000000;fill-opacity:1;fill-rule:evenodd;stroke:#000000;stroke-width:0.61470497px;stroke-linecap:butt;stroke-linejoin:miter;stroke-opacity:1"
             d="m 194.67622,116.75902 -5.17543,8.02401 c 0,0 1.88744,0.83438 4.96944,-3.94395 1.74452,-2.70473 0.20599,-4.08006 0.20599,-4.08006 z"
             id="path3459-0-9"
             inkscape:connector-curvature="0"
             sodipodi:nodetypes="ccsc" />
        </g>
        <path
           sodipodi:nodetypes="cccc"
           inkscape:connector-curvature="0"
           id="path4320-2-3"
           d="m 125.29541,156.89222 c -4.39748,2.01353 -12.46243,19.38846 5.27406,11.35206 10.19275,-4.73546 37.15833,-14.64746 47.26401,-29.03657 -18.1681,-1.61532 -42.12193,12.84526 -52.53807,17.68451 z"
           style="fill:#000000;fill-opacity:1;fill-rule:evenodd;stroke:#000000;stroke-width:0.61299956px;stroke-linecap:butt;stroke-linejoin:miter;stroke-opacity:1" />
      </g>
      <path
         style="fill:#000000;fill-opacity:1;fill-rule:evenodd;stroke:#000000;stroke-width:1px;stroke-linecap:butt;stroke-linejoin:miter;stroke-opacity:1"
         d="m 168.93672,172.76921 c 0,0 10.31894,6.46622 17.85806,-6.59191 l 40.10127,-68.96381 c 7.11025,-13.46619 -3.0649,-18.85605 -3.0649,-18.85605 0,0 -10.49068,-6.1987 -18.12534,7.02491 l -40.01402,68.81266 c -7.33246,12.7002 3.24493,18.5742 3.24493,18.5742 z"
         id="path4148-1"
         inkscape:connector-curvature="0"
         sodipodi:nodetypes="ccccccc" />
    </g>
    <path
       sodipodi:nodetypes="cccccsc"
       inkscape:connector-curvature="0"
       id="path4148-7"
       d="m 41.627595,223.56025 c 0,0 23.383219,14.65277 40.467216,-14.93758 L 172.96615,52.347477 c 16.11216,-30.515013 -6.94519,-42.7286869 -6.94519,-42.7286869 0,0 11.789,18.4194739 0.31608,38.2911789 L 75.663409,203.84265 c -12.145918,20.88752 -34.035814,19.7176 -34.035814,19.7176 z"
       style="fill:#009600;fill-opacity:1;fill-rule:evenodd;stroke:#009600;stroke-width:2.26604652px;stroke-linecap:butt;stroke-linejoin:miter;stroke-opacity:1" />
    <g
       transform="matrix(2.6650202,0.71409002,-0.71409002,2.6650202,-162.73873,-317.47483)"
       id="g4342">
      <g
         style="stroke:#c8c8c8;stroke-opacity:1"
         id="g4328"
         transform="rotate(-2.2235581,117.8337,937.09325)">
        <path
           sodipodi:nodetypes="cccccsccccccccccccccccccccccccccccc"
           inkscape:connector-curvature="0"
           id="path3365-2"
           d="m 188.01644,113.04971 6.87348,-8.43867 c 8.90703,7.54441 -2.78011,21.18215 -2.78011,21.18215 l -33.16688,40.71947 c -0.72489,0.79818 -1.48059,1.3977 -2.24889,1.91592 -0.80138,1.00607 -4.70019,2.08591 -5.97653,1.84539 -3.59181,-0.67686 -1.1713,-8.34905 -1.26381,-9.8651 l 2.57483,0.40866 -0.33662,-3.29325 3.20952,-0.32809 -0.33949,-3.32117 3.4328,-0.35089 -0.30239,-2.95836 3.09789,-0.31666 -0.31666,-3.09789 2.90252,-0.29668 -0.29383,-2.87464 3.20951,-0.32806 -0.34232,-3.34909 3.09789,-0.31666 -0.30811,-3.01417 3.09789,-0.31666 -0.31095,-3.04208 3.01416,-0.3081 -0.32809,-3.20952 2.98627,-0.30525 -0.30239,-2.95837 3.15371,-0.32236 -0.31097,-3.04207 2.93045,-0.29955 -0.31096,-3.04207 3.18162,-0.32523 -0.34235,-3.34907 3.1338,-0.32034 z"
           style="fill:#c8c8c8;fill-opacity:1;fill-rule:evenodd;stroke:#c8c8c8;stroke-width:0.45464939px;stroke-linecap:butt;stroke-linejoin:miter;stroke-opacity:1" />
        <path
           sodipodi:nodetypes="ccsc"
           inkscape:connector-curvature="0"
           id="path3459-0"
           d="m 194.67622,116.75902 -5.17543,8.02401 c 0,0 1.88744,0.83438 4.96944,-3.94395 1.74452,-2.70473 0.20599,-4.08006 0.20599,-4.08006 z"
           style="fill:#969696;fill-opacity:1;fill-rule:evenodd;stroke:#c8c8c8;stroke-width:0.61470497px;stroke-linecap:butt;stroke-linejoin:miter;stroke-opacity:1" />
      </g>
      <path
         style="fill:#c8c8c8;fill-opacity:1;fill-rule:evenodd;stroke:#c8c8c8;stroke-width:0.61299956px;stroke-linecap:butt;stroke-linejoin:miter;stroke-opacity:1"
         d="m 125.29541,156.89222 c -4.39748,2.01353 -12.46243,19.38846 5.27406,11.35206 10.19275,-4.73546 37.15833,-14.64746 47.26401,-29.03657 -18.1681,-1.61532 -42.12193,12.84526 -52.53807,17.68451 z"
         id="path4320-2"
         inkscape:connector-curvature="0"
         sodipodi:nodetypes="cccc" />
    </g>
    <path
       sodipodi:nodetypes="ccccccc"
       inkscape:connector-curvature="0"
       id="path4148"
       d="m 34.341039,219.47547 c 0,0 23.41274,14.67126 40.518312,-14.95644 L 165.84543,48.046471 c 16.13251,-30.553555 -6.95397,-42.7826439 -6.95397,-42.7826439 0,0 -23.80239,-14.0642842 -41.12474,15.9388719 L 26.978599,177.33231 c -16.636691,28.81559 7.36244,42.14316 7.36244,42.14316 z"
       style="fill:#00c800;fill-opacity:1;fill-rule:evenodd;stroke:#00c800;stroke-width:2.26890826px;stroke-linecap:butt;stroke-linejoin:miter;stroke-opacity:1" />
    <g
       transform="rotate(30,99.804022,109.19598)"
       id="g4861">
      <g
         style="fill:#000000"
         id="use3837"
         inkscape:label="Clip"
         transform="translate(104,46.75)">
        <ellipse
           id="ellipse3852"
           cx="-4.1959777"
           cy="62.445976"
           rx="22.809862"
           ry="22.897127"
           style="fill:#000000;stroke-width:1.01748157" />
      </g>
      <g
         style="fill:#ffffff"
         id="use3837-6"
         inkscape:label="Clip"
         transform="matrix(0.23999336,0,0,0.41951824,94.92136,75.642507)">
        <ellipse
           id="ellipse3852-7"
           cx="-4.1959777"
           cy="62.445976"
           rx="22.809862"
           ry="22.897127"
           style="fill:#ffffff;stroke-width:1.01748157" />
      </g>
      <g
         style="fill:#ffffff"
         id="use3837-6-5"
         inkscape:label="Clip"
         transform="matrix(0.23999336,0,0,0.41951824,107.36548,75.612225)">
        <ellipse
           id="ellipse3852-7-3"
           cx="-4.1959777"
           cy="62.445976"
           rx="22.809862"
           ry="22.897127"
           style="fill:#ffffff;stroke-width:1.01748157" />
      </g>
      <path
         style="fill:#d4aa00;stroke:none;stroke-width:1.73085225px;stroke-linecap:butt;stroke-linejoin:miter;stroke-opacity:1"
         d="m 99.652273,127.66727 c 0,0 -6.561707,-1.95557 -10.357711,-11.21751 -1.152759,-2.81265 4.511713,-4.50782 10.491638,-4.50782 9.07886,0 12.42277,2.26412 11.21562,4.58543 -5.47839,10.53473 -11.349547,11.1399 -11.349547,11.1399 z"
         id="path3917"
         inkscape:connector-curvature="0"
         sodipodi:nodetypes="csssc" />
      <g
         style="fill:#000000"
         id="use3837-6-6"
         inkscape:label="Clip"
         transform="matrix(0.10507884,0,0,0.18368211,96.052478,92.608793)">
        <ellipse
           id="ellipse3852-7-2"
           cx="-4.1959777"
           cy="62.445976"
           rx="22.809862"
           ry="22.897127"
           style="fill:#000000;stroke-width:1.01748157" />
      </g>
      <g
         style="fill:#000000"
         id="use3837-6-6-9"
         inkscape:label="Clip"
         transform="matrix(0.10507884,0,0,0.18368211,105.07765,92.530533)">
        <ellipse
           id="ellipse3852-7-2-1"
           cx="-4.1959777"
           cy="62.445976"
           rx="22.809862"
           ry="22.897127"
           style="fill:#000000;stroke-width:1.01748157" />
      </g>
      <g
         style="fill:#806600"
         id="use3837-6-6-9-2"
         inkscape:label="Clip"
         transform="matrix(0.09694118,0,0,0.05497788,103.25521,110.61748)">
        <ellipse
           id="ellipse3852-7-2-1-7"
           cx="-4.1959777"
           cy="62.445976"
           rx="22.809862"
           ry="22.897127"
           style="fill:#806600;stroke-width:1.01748157" />
      </g>
      <g
         style="fill:#806600"
         id="use3837-6-6-9-2-0"
         inkscape:label="Clip"
         transform="matrix(0.09694118,0,0,0.05497788,97.629538,111.05942)">
        <ellipse
           id="ellipse3852-7-2-1-7-9"
           cx="-8.7548428"
           cy="54.40744"
           rx="22.809862"
           ry="22.897127"
           style="fill:#806600;stroke-width:1.01748157" />
      </g>
    </g>
  </g>
</svg>
